# Blender v2.77 (sub 0) OBJ File: 'table.blend'
# www.blender.org
mtllib table.mtl
o Cube
v -1.500000 3.000000 2.500000
v 1.500000 3.000000 2.500000
v 1.500000 -3.000000 2.500000
v -1.500000 -2.999999 2.500000
v -1.499999 3.000001 2.700000
v 1.500001 2.999998 2.700000
v 1.500000 -3.000001 2.700000
v -1.500000 -3.000000 2.700000
v -1.500000 2.800001 2.500000
v -1.500000 -2.799997 2.500000
v 1.500000 2.800000 2.500000
v 1.500000 -2.800000 2.500000
v -1.499999 2.800002 2.700000
v -1.500000 -2.799998 2.700000
v 1.500000 2.799995 2.700000
v 1.500000 -2.800003 2.700000
v -1.250000 3.000000 2.500000
v 1.250000 3.000000 2.500000
v 1.249999 -3.000000 2.500000
v -1.250001 -2.999999 2.500000
v -1.249998 3.000000 2.700000
v 1.250002 2.999999 2.700000
v 1.249999 -3.000000 2.700000
v -1.250000 -3.000000 2.700000
v -1.249998 2.800000 2.700000
v 1.250001 2.799997 2.700000
v -1.249999 -2.799999 2.700000
v 1.250000 -2.800001 2.700000
v 1.250000 2.800000 2.500000
v -1.250000 2.800000 2.500000
v 1.249999 -2.799999 2.500000
v -1.250000 -2.799998 2.500000
v 1.500000 -2.800000 2.500000
v 1.500000 -3.000000 2.500000
v 1.249999 -3.000000 2.500000
v 1.249999 -2.799999 2.500000
v 1.500000 -2.800000 0.000000
v 1.500000 -3.000000 0.000000
v 1.249999 -3.000000 0.000000
v 1.249999 -2.799999 0.000000
v -1.500000 -2.799997 0.000000
v -1.500000 -2.999999 0.000000
v -1.250001 -2.999999 0.000000
v -1.250000 -2.799998 0.000000
v -1.500000 3.000000 0.000000
v -1.500000 2.800001 0.000000
v -1.250000 2.800000 0.000000
v -1.250000 3.000000 0.000000
v 1.250000 3.000000 0.000000
v 1.500000 3.000000 0.000000
v 1.500000 2.800000 0.000000
v 1.249999 2.800000 0.000000
vt 0.0000 0.0000
vt 0.0000 0.0000
vt 0.0000 0.0000
vt 0.0000 0.0000
vt 0.5337 0.1627
vt 0.5337 0.1600
vt 0.5618 0.1600
vt 0.5618 0.1627
vt 0.5899 0.0800
vt 0.5899 0.1600
vt 0.5618 0.1600
vt 0.5618 0.0800
vt 0.5506 0.0800
vt 0.5506 0.0000
vt 0.5618 0.0000
vt 0.5618 0.0800
vt 0.2528 0.0800
vt 0.2528 0.1600
vt 0.2247 0.1600
vt 0.2247 0.0800
vt 0.5618 0.0773
vt 0.8989 0.0773
vt 0.8989 0.0800
vt 0.5618 0.0800
vt 0.5618 0.0000
vt 0.8989 0.0000
vt 0.8989 0.0027
vt 0.5618 0.0027
vt 0.2247 0.0800
vt 0.2247 0.0000
vt 0.2360 0.0000
vt 0.2360 0.0800
vt 0.5337 0.2400
vt 0.5337 0.2373
vt 0.5618 0.2373
vt 0.5618 0.2400
vt 0.0281 0.0000
vt 0.0562 0.0000
vt 0.0562 1.0000
vt 0.0281 1.0000
vt 0.5730 0.1667
vt 0.5730 0.1600
vt 0.8876 0.1600
vt 0.8876 0.1667
vt 0.5730 0.2400
vt 0.5730 0.2333
vt 0.8876 0.2333
vt 0.8876 0.2400
vt 0.9326 0.0000
vt 0.9438 0.0000
vt 0.9438 1.0000
vt 0.9326 1.0000
vt 0.5618 0.2333
vt 0.5618 0.1667
vt 0.2247 0.2373
vt 0.2247 0.1627
vt 0.2528 0.1627
vt 0.2528 0.2373
vt 0.2247 0.2400
vt 0.2528 0.2400
vt 0.5337 0.0800
vt 0.8989 0.0800
vt 0.8989 0.1600
vt 0.8708 0.1600
vt 0.8708 0.0800
vt 0.1124 0.0000
vt 0.1405 0.0000
vt 0.1405 1.0000
vt 0.1124 1.0000
vt 0.8989 0.1667
vt 0.8989 0.2333
vt 0.0843 1.0000
vt 0.0562 1.0000
vt 0.0562 0.0000
vt 0.0843 0.0000
vt 0.0000 0.0000
vt 0.0000 0.0000
vt 0.0000 0.0000
vt 0.0000 0.0000
vt 1.0000 0.0067
vt 1.0000 0.0133
vt 0.9888 0.0133
vt 0.9888 0.0067
vt 0.9551 0.0000
vt 0.9663 0.0000
vt 0.9663 1.0000
vt 0.9551 1.0000
vt 0.9101 0.0000
vt 0.9213 0.0000
vt 0.9213 1.0000
vt 0.9101 1.0000
vt 0.0281 0.0000
vt 0.0281 1.0000
vt 0.0000 1.0000
vt 1.0000 0.0000
vt 1.0000 0.0067
vt 0.9888 0.0067
vt 0.9888 0.0000
vt 0.1685 1.0000
vt 0.1405 1.0000
vt 0.1405 0.0000
vt 0.1685 0.0000
vt 0.9438 0.0000
vt 0.9551 0.0000
vt 0.9551 1.0000
vt 0.9438 1.0000
vt 0.8989 0.0000
vt 0.9101 0.0000
vt 0.9101 1.0000
vt 0.8989 1.0000
vt 0.9888 0.0267
vt 0.9888 0.0200
vt 1.0000 0.0200
vt 1.0000 0.0267
vt 0.1124 1.0000
vt 0.0843 1.0000
vt 0.0843 0.0000
vt 0.1124 0.0000
vt 0.2247 1.0000
vt 0.1966 1.0000
vt 0.1966 0.0000
vt 0.2247 0.0000
vt 0.9775 0.0000
vt 0.9888 0.0000
vt 0.9888 1.0000
vt 0.9775 1.0000
vt 1.0000 0.0133
vt 1.0000 0.0200
vt 0.9888 0.0200
vt 0.9888 0.0133
vt 0.9663 0.0000
vt 0.9775 0.0000
vt 0.9775 1.0000
vt 0.9663 1.0000
vt 0.9213 0.0000
vt 0.9326 0.0000
vt 0.9326 1.0000
vt 0.9213 1.0000
vt 0.1966 1.0000
vt 0.1685 1.0000
vt 0.1685 0.0000
vt 0.1966 0.0000
vn 0.0000 0.0000 1.0000
vn 0.0000 1.0000 0.0000
vn 1.0000 0.0000 0.0000
vn -0.0000 -1.0000 -0.0000
vn -1.0000 0.0000 0.0000
vn 0.0000 0.0000 -1.0000
usemtl tableMaterial
s off
f 31/1/1 12/2/1 33/3/1 36/4/1
f 28/5/1 23/6/1 7/7/1 16/8/1
f 18/9/2 22/10/2 6/11/2 2/12/2
f 12/13/3 16/14/3 7/15/3 3/16/3
f 20/17/4 24/18/4 8/19/4 4/20/4
f 14/21/5 10/22/5 4/23/5 8/24/5
f 5/25/5 1/26/5 9/27/5 13/28/5
f 13/28/5 9/27/5 10/22/5 14/21/5
f 2/29/3 6/30/3 15/31/3 11/32/3
f 11/32/3 15/31/3 16/14/3 12/13/3
f 22/33/1 26/34/1 15/35/1 6/36/1
f 26/34/1 28/5/1 16/8/1 15/35/1
f 11/37/4 29/38/4 52/39/4 51/40/4
f 29/41/6 11/42/6 12/43/6 31/44/6
f 9/45/6 30/46/6 32/47/6 10/48/6
f 30/46/6 29/41/6 31/44/6 32/47/6
f 9/49/5 1/50/5 45/51/5 46/52/5
f 17/53/6 18/54/6 29/41/6 30/46/6
f 13/55/1 14/56/1 27/57/1 25/58/1
f 25/58/1 27/57/1 28/5/1 26/34/1
f 5/59/1 13/55/1 25/58/1 21/60/1
f 21/60/1 25/58/1 26/34/1 22/33/1
f 3/16/4 7/7/4 23/6/4 19/61/4
f 19/61/4 23/6/4 24/18/4 20/17/4
f 1/62/2 5/63/2 21/64/2 17/65/2
f 17/65/2 21/64/2 22/10/2 18/9/2
f 14/56/1 8/19/1 24/18/1 27/57/1
f 27/57/1 24/18/1 23/6/1 28/5/1
f 20/66/4 4/67/4 42/68/4 43/69/4
f 32/47/6 31/44/6 19/70/6 20/71/6
f 36/72/2 33/73/2 37/74/2 40/75/2
f 12/2/1 3/76/1 34/77/1 33/3/1
f 3/76/1 19/78/1 35/79/1 34/77/1
f 19/78/1 31/1/1 36/4/1 35/79/1
f 40/80/6 37/81/6 38/82/6 39/83/6
f 33/84/3 34/85/3 38/86/3 37/87/3
f 35/88/5 36/89/5 40/90/5 39/91/5
f 34/77/4 35/92/4 39/93/4 38/94/4
f 41/95/6 44/96/6 43/97/6 42/98/6
f 10/99/2 32/100/2 44/101/2 41/102/2
f 32/103/3 20/104/3 43/105/3 44/106/3
f 4/107/5 10/108/5 41/109/5 42/110/5
f 45/111/6 48/112/6 47/113/6 46/114/6
f 1/115/2 17/116/2 48/117/2 45/118/2
f 30/119/4 9/120/4 46/121/4 47/122/4
f 17/123/3 30/124/3 47/125/3 48/126/3
f 49/127/6 50/128/6 51/129/6 52/130/6
f 2/131/3 11/132/3 51/133/3 50/134/3
f 29/135/5 18/136/5 49/137/5 52/138/5
f 18/139/2 2/140/2 50/141/2 49/142/2
